<?xml version="1.0" encoding="UTF-8" standalone="no"?>
<svg
   xmlns:dc="http://purl.org/dc/elements/1.1/"
   xmlns:cc="http://creativecommons.org/ns#"
   xmlns:rdf="http://www.w3.org/1999/02/22-rdf-syntax-ns#"
   xmlns:svg="http://www.w3.org/2000/svg"
   xmlns="http://www.w3.org/2000/svg"
   xmlns:sodipodi="http://sodipodi.sourceforge.net/DTD/sodipodi-0.dtd"
   xmlns:inkscape="http://www.inkscape.org/namespaces/inkscape"
   version="1.1"
   id="svg5556"
   viewBox="0 0 400 200"
   height="200"
   width="400"
   sodipodi:docname="bhacks.svg"
   inkscape:version="0.92.2 5c3e80d, 2017-08-06">
  <sodipodi:namedview
     pagecolor="#ffffff"
     bordercolor="#666666"
     borderopacity="1"
     objecttolerance="10"
     gridtolerance="10"
     guidetolerance="10"
     inkscape:pageopacity="0"
     inkscape:pageshadow="2"
     inkscape:window-width="853"
     inkscape:window-height="658"
     id="namedview20"
     showgrid="false"
     inkscape:zoom="0.97"
     inkscape:cx="200"
     inkscape:cy="100"
     inkscape:window-x="202"
     inkscape:window-y="26"
     inkscape:window-maximized="0"
     inkscape:current-layer="svg5556" />
  <defs
     id="defs5558" />
  <metadata
     id="metadata5561">
    <rdf:RDF>
      <cc:Work
         rdf:about="">
        <dc:format>image/svg+xml</dc:format>
        <dc:type
           rdf:resource="http://purl.org/dc/dcmitype/StillImage" />
        <dc:title></dc:title>
      </cc:Work>
    </rdf:RDF>
  </metadata>
  <g
     transform="translate(0,-852.36216)"
     id="layer1">
    <path
       d="m 132.999,983.9073 q 2.4998,0 5.44075,-0.4411 3.088,-0.5882 4.55848,-1.4705 v -11.7638 l -10.58742,0.8823 q -4.11733,0.2941 -6.76419,1.7646 -2.64685,1.4705 -2.64685,4.4114 0,2.941 2.20571,4.8526 2.35276,1.7645 7.79352,1.7645 z m -1.17638,-57.78964 q 7.94056,0 14.41065,1.61752 6.61714,1.61752 11.17561,4.99961 4.70552,3.23505 7.20533,8.38171 2.4998,4.99962 2.4998,11.91085 V 985.966 q 0,3.8232 -2.20571,6.3231 -2.05866,2.3527 -4.99961,4.1173 -9.55809,5.7348 -26.90969,5.7348 -7.79352,0 -14.11656,-1.4704 -6.176,-1.4705 -10.73447,-4.4115 -4.41142,-2.9409 -6.91123,-7.4994 -2.352758,-4.5585 -2.352758,-10.5874 0,-10.1463 6.028948,-15.5871 6.02894,-5.44072 18.67503,-6.76415 l 19.26322,-2.05866 v -1.02934 q 0,-4.26437 -3.82324,-6.02894 -3.67618,-1.91162 -10.73446,-1.91162 -5.58781,0 -10.88152,1.17638 -5.29371,1.17638 -9.55808,2.94095 -1.91162,-1.32343 -3.23505,-3.97028 -1.32343,-2.79391 -1.32343,-5.73486 0,-3.82323 1.76457,-6.02894 1.91162,-2.35276 5.73486,-3.97028 4.26437,-1.61753 9.99923,-2.35276 5.88189,-0.73524 11.02856,-0.73524 z"
       style="font-style:normal;font-variant:normal;font-weight:normal;font-stretch:normal;font-size:medium;line-height:125%;font-family:Baloo;-inkscape-font-specification:'Baloo, Normal';text-align:start;letter-spacing:0px;word-spacing:0px;writing-mode:lr-tb;text-anchor:start;display:inline;fill:#ffffff;fill-opacity:1;stroke:none;stroke-width:1px;stroke-linecap:butt;stroke-linejoin:miter;stroke-opacity:1"
       id="path4293"
       inkscape:connector-curvature="0" />
    <path
       d="m 222.83353,945.82202 q -3.67619,0 -7.05828,1.17638 -3.23505,1.17638 -5.73486,3.52914 -2.35276,2.20571 -3.82323,5.58781 -1.47048,3.38209 -1.47048,7.94055 0,9.1169 5.14667,13.6755 5.29371,4.5584 12.79313,4.5584 4.41142,0 7.64647,-1.0293 3.23504,-1.0293 5.73485,-2.2057 2.94095,2.0586 4.41142,4.5584 1.47048,2.3528 1.47048,5.7349 0,6.0289 -5.73485,9.411 -5.73486,3.2351 -15.88113,3.2351 -9.26399,0 -16.76342,-2.6469 -7.49942,-2.7939 -12.94017,-7.6464 -5.29371,-4.9997 -8.23466,-11.9109 -2.94095,-6.9112 -2.94095,-15.293 0,-9.70508 3.08799,-16.91041 3.23505,-7.35237 8.67581,-12.05789 5.44075,-4.70552 12.49903,-7.05828 7.20533,-2.35276 15.14589,-2.35276 10.58742,0 16.32227,3.82323 5.73486,3.82324 5.73486,9.85218 0,2.79391 -1.32343,5.29371 -1.32343,2.35276 -3.088,4.11733 -2.49981,-1.17638 -6.02895,-2.20571 -3.52914,-1.17638 -7.64646,-1.17638 z"
       style="font-style:normal;font-variant:normal;font-weight:normal;font-stretch:normal;font-size:medium;line-height:125%;font-family:Baloo;-inkscape-font-specification:'Baloo, Normal';text-align:start;letter-spacing:0px;word-spacing:0px;writing-mode:lr-tb;text-anchor:start;display:inline;fill:#ffffff;fill-opacity:1;stroke:none;stroke-width:1px;stroke-linecap:butt;stroke-linejoin:miter;stroke-opacity:1"
       id="path4295"
       inkscape:connector-curvature="0" />
    <path
       d="m 324.19059,986.8483 q -0.73524,6.9112 -4.11733,10.5874 -3.23504,3.6762 -9.55808,3.6762 -4.70552,0 -8.38171,-2.2057 -3.67619,-2.3528 -7.94057,-7.7935 l -14.5577,-18.2339 v 26.7626 q -1.61752,0.2941 -4.85256,0.7353 -3.088,0.5882 -6.32305,0.5882 -3.23504,0 -5.88189,-0.4412 -2.49981,-0.4411 -4.26438,-1.7646 -1.76457,-1.3234 -2.7939,-3.5291 -0.88229,-2.3528 -0.88229,-6.0289 v -85.14056 q 1.61752,-0.44115 4.70552,-0.88229 3.23505,-0.58819 6.47009,-0.58819 3.23504,0 5.73485,0.44114 2.64686,0.44115 4.41143,1.76457 1.76457,1.32343 2.64685,3.67619 1.02933,2.20571 1.02933,5.8819 v 38.82054 l 25.29217,-25.88036 q 7.64647,0 12.20494,3.38209 4.70552,3.38209 4.70552,8.52875 0,2.20572 -0.73524,4.11733 -0.73523,1.76457 -2.35276,3.67619 -1.47047,1.91162 -3.97028,4.11733 -2.35276,2.05867 -5.5878,4.85257 l -8.52876,7.3524 z"
       style="font-style:normal;font-variant:normal;font-weight:normal;font-stretch:normal;font-size:medium;line-height:125%;font-family:Baloo;-inkscape-font-specification:'Baloo, Normal';text-align:start;letter-spacing:0px;word-spacing:0px;writing-mode:lr-tb;text-anchor:start;display:inline;fill:#ffffff;fill-opacity:1;stroke:none;stroke-width:1px;stroke-linecap:butt;stroke-linejoin:miter;stroke-opacity:1"
       id="path4297"
       inkscape:connector-curvature="0" />
    <path
       d="m 394.4747,978.4666 q 0,11.1756 -8.38171,17.4986 -8.3817,6.3231 -24.70398,6.3231 -6.17599,0 -11.4697,-0.8823 -5.29371,-0.8823 -9.11694,-2.6469 -3.67619,-1.9116 -5.8819,-4.7055 -2.05867,-2.7939 -2.05867,-6.6171 0,-3.5292 1.47048,-5.8819 1.47047,-2.4998 3.52914,-4.1173 4.26437,2.3527 9.70513,4.2643 5.58781,1.7646 12.79313,1.7646 4.55847,0 6.91123,-1.3234 2.49981,-1.3235 2.49981,-3.5292 0,-2.0586 -1.76457,-3.235 -1.76457,-1.1764 -5.8819,-1.9117 l -4.41142,-0.8822 q -12.79313,-2.4998 -19.11618,-7.7936 -6.17599,-5.44071 -6.17599,-15.43994 0,-5.44076 2.35276,-9.85218 2.35276,-4.41143 6.61714,-7.35238 4.26437,-2.94094 10.14627,-4.55847 6.02895,-1.61752 13.23428,-1.61752 5.44075,0 10.14627,0.88229 4.85257,0.73523 8.38171,2.35276 3.52914,1.61752 5.5878,4.26437 2.05867,2.49981 2.05867,6.02895 0,3.38209 -1.32343,5.8819 -1.17638,2.35276 -3.088,3.97028 -1.17638,-0.73524 -3.52914,-1.47047 -2.35276,-0.88229 -5.14666,-1.47048 -2.7939,-0.73524 -5.73485,-1.17638 -2.7939,-0.44114 -5.14666,-0.44114 -4.85257,0 -7.49942,1.17638 -2.64686,1.02933 -2.64686,3.38209 0,1.61752 1.47048,2.64686 1.47047,1.02933 5.5878,1.91161 l 4.55847,1.02934 q 14.11656,3.23504 19.99846,8.96993 6.02895,5.5878 6.02895,14.5577 z"
       style="font-style:normal;font-variant:normal;font-weight:normal;font-stretch:normal;font-size:medium;line-height:125%;font-family:Baloo;-inkscape-font-specification:'Baloo, Normal';text-align:start;letter-spacing:0px;word-spacing:0px;writing-mode:lr-tb;text-anchor:start;display:inline;fill:#ffffff;fill-opacity:1;stroke:none;stroke-width:1px;stroke-linecap:butt;stroke-linejoin:miter;stroke-opacity:1"
       id="path4299"
       inkscape:connector-curvature="0" />
    <path
       id="path4291-4"
       d="m 17.438663,909.35434 c -2.1567,0 -4.410912,0.19576 -6.763672,0.58789 -2.35276,0.2941 -4.068138,0.54026 -5.146484,0.73632 -2.05e-4,6.51189 -0.0046,22.1772 -0.0013,29.40821 0.0017,3.6155 0.08877,4.38509 0.972272,6.32753 0.593363,1.30456 1.62128,2.43331 2.773996,3.28489 1.169491,0.86398 2.608013,1.33476 4.012563,1.71079 1.966969,0.5266 3.396024,0.73223 6.064677,0.73223 2.668653,0 26.026548,1.1e-4 26.026548,1.1e-4 0,0 18.626349,-1.8e-4 27.939519,-1.1e-4 1.98495,10e-6 4.54463,-0.1713 6.80015,-0.43989 1.71671,-0.20443 5.1096,-0.89 5.1096,-0.89 5.3e-4,-10.19426 3.5e-4,-19.05842 3.5e-4,-29.25268 0,-2.54882 -0.29463,-4.60727 -0.88282,-6.17578 -0.58819,-1.5685 -1.4701,-2.79349 -2.64648,-3.67578 -1.17638,-0.88228 -2.64754,-1.47152 -4.41211,-1.76562 -1.66654,-0.39213 -3.62613,-0.58789 -5.88086,-0.58789 -2.1567,0 -4.41091,0.19576 -6.76367,0.58789 -2.35275,0.2941 -4.068129,0.54026 -5.146489,0.73632 l -4.1e-4,29.40821 -28.233581,-2.2e-4 4.09e-4,-18.52735 c 5.6e-5,-2.54882 -0.292672,-4.60727 -0.880859,-6.17578 -0.588193,-1.5685 -1.472057,-2.79349 -2.648438,-3.67578 -1.17638,-0.88228 -2.645589,-1.47152 -4.410156,-1.76562 -1.66654,-0.39213 -3.628086,-0.58789 -5.882812,-0.58789 z"
       style="font-style:normal;font-variant:normal;font-weight:normal;font-stretch:normal;font-size:medium;line-height:125%;font-family:Baloo;-inkscape-font-specification:'Baloo, Normal';text-align:start;letter-spacing:0px;word-spacing:0px;writing-mode:lr-tb;text-anchor:start;display:inline;fill:#ffffff;fill-opacity:1;stroke:none;stroke-width:1px;stroke-linecap:butt;stroke-linejoin:miter;stroke-opacity:1"
       inkscape:connector-curvature="0" />
    <path
       id="path4291-4-6"
       d="m 5.527212,960.14631 c 0,12.30339 -0.0051,10.98339 0.0013,28.17289 6.1e-5,2.5488 0.294619,4.6073 0.882812,6.1758 0.588187,1.5685 1.470104,2.7935 2.646484,3.6758 1.17638,0.8822 2.597132,1.4715 4.263672,1.7656 1.764567,0.3921 3.774564,0.5879 6.029297,0.5879 2.254727,0 4.508945,-0.1473 6.763672,-0.4414 2.35276,-0.2941 4.068138,-0.5887 5.146484,-0.8828 l 10e-5,-28.0704 28.23359,2e-4 -10e-5,17.1895 c -1e-5,2.5489 0.29267,4.6073 0.88086,6.1758 0.58818,1.5685 1.472059,2.7935 2.648429,3.6758 1.17638,0.8823 2.59713,1.4715 4.26367,1.7656 1.76457,0.3921 3.77457,0.5879 6.0293,0.5879 2.25473,0 4.50895,-0.1473 6.76367,-0.4414 2.35276,-0.2941 4.06814,-0.5887 5.14649,-0.8828 0.0438,-14.0352 0.0106,-23.0238 -4.1e-4,-28.0706 -0.006,-2.5233 -0.11493,-4.5438 -0.98744,-6.5845 -0.55674,-1.3021 -1.47112,-2.5061 -2.6022,-3.35828 -1.15667,-0.87144 -2.63191,-1.25214 -4.03505,-1.61058 -2.01606,-0.51501 -3.23486,-0.74096 -6.19717,-0.75 -2.96231,-0.009 -16.065059,1.4e-4 -26.027359,1.1e-4 0,0 -21.297109,-10e-5 -27.938645,-1.1e-4 -3.320768,-10e-6 -4.544091,0.1736 -6.799735,0.43997 -1.71704,0.20277 -5.111716,0.88 -5.111721,0.88 z"
       style="font-style:normal;font-variant:normal;font-weight:normal;font-stretch:normal;font-size:medium;line-height:125%;font-family:Baloo;-inkscape-font-specification:'Baloo, Normal';text-align:start;letter-spacing:0px;word-spacing:0px;writing-mode:lr-tb;text-anchor:start;display:inline;fill:#ffffff;fill-opacity:1;stroke:none;stroke-width:1px;stroke-linecap:butt;stroke-linejoin:miter;stroke-opacity:1"
       inkscape:connector-curvature="0" />
  </g>
</svg>
