<?xml version="1.0" encoding="UTF-8" standalone="no"?>
<svg
   xmlns:dc="http://purl.org/dc/elements/1.1/"
   xmlns:cc="http://creativecommons.org/ns#"
   xmlns:rdf="http://www.w3.org/1999/02/22-rdf-syntax-ns#"
   xmlns:svg="http://www.w3.org/2000/svg"
   xmlns="http://www.w3.org/2000/svg"
   id="svg25"
   version="1.1">
  <metadata
     id="metadata31">
    <rdf:RDF>
      <cc:Work
         rdf:about="">
        <dc:format>image/svg+xml</dc:format>
        <dc:type
           rdf:resource="http://purl.org/dc/dcmitype/StillImage" />
        <dc:title></dc:title>
      </cc:Work>
    </rdf:RDF>
  </metadata>
  <defs
     id="defs29" />
  <g
     style="fill:#ffffff"
     id="g23">
    <path
       id="path4817"
       d="M 92.556 27.363 L 77.445 43.206 C 77.445 43.206 76.644 43.614 75.975 43.614 C 75.303 43.614 74.364 42.939 74.364 42.939 L 72.492 41.343 C 72.492 41.343 71.955 41.214 71.955 40.671 C 71.955 40.143 73.431 38.796 73.431 36.255 C 73.431 33.711 72.897 23.142 56.574 23.142 C 40.257 23.142 33.03 38.394 33.03 50.973 C 33.03 63.549 40.785 86.559 66.213 86.559 C 81 86.559 84.129 78.255 84.129 78.255 L 89.214 78.255 L 89.214 99.933 L 61.389 99.933 C 28.215 99.933 9.75 73.974 9.75 55.248 C 9.75 26.529 34.716 10.596 57.378 10.596 C 79.317 10.599 92.556 27.363 92.556 27.363 L 92.556 27.363 Z"
       style="clip-rule:evenodd;fill-opacity:1;fill-rule:evenodd;fill:#ffffff" />
    <path
       id="path4819"
       d="M 139.389 12.981 L 162.264 12.981 L 190.092 85.761 C 190.89 87.759 192.231 89.643 193.566 91.239 C 194.898 92.847 198.111 93.924 198.111 93.924 L 198.111 100.203 L 164.541 100.203 L 164.541 93.783 C 164.541 93.783 166.677 94.059 167.751 92.178 C 168.819 90.306 168.819 88.836 168.021 86.967 C 167.217 85.089 161.586 70.242 161.586 70.242 L 134.166 70.242 C 134.166 70.242 128.553 85.224 128.01 86.562 C 127.476 87.897 127.476 90.042 128.01 91.374 C 128.901 93.6 132.027 93.927 132.027 93.927 L 132.027 100.206 L 105.132 100.206 L 105.132 93.927 C 105.132 93.927 107.577 93.084 109.413 91.242 C 111.42 89.238 112.086 87.096 112.086 87.096 L 139.389 12.981 L 139.389 12.981 Z M 138.714 56.592 L 156.378 56.592 L 147.282 31.173 L 138.714 56.592 L 138.714 56.592 Z"
       style="clip-rule:evenodd;fill-opacity:1;fill-rule:evenodd;fill:#ffffff" />
    <path
       id="path4821"
       d="M 208.815 12.981 C 208.815 12.981 235.839 12.981 251.628 12.981 C 267.414 12.981 283.194 18.594 283.194 36.786 C 283.194 54.981 271.692 61.41 261.795 65.961 C 250.365 71.208 235.308 75.324 235.308 75.324 L 235.308 89.235 C 235.308 89.235 235.443 90.174 236.778 91.767 C 238.116 93.375 239.589 93.78 239.589 93.78 L 239.589 100.2 L 208.551 100.2 L 208.551 93.924 C 208.551 93.924 210.42 93.516 211.767 92.178 C 213.096 90.84 213.369 89.235 213.369 89.235 L 213.369 26.355 C 213.369 26.355 213.492 23.676 212.433 22.614 C 211.365 21.534 208.818 20.067 208.818 20.067 L 208.818 12.981 L 208.815 12.981 L 208.815 12.981 Z M 235.572 26.088 L 235.572 63.276 C 235.572 63.276 260.724 52.848 260.724 38.13 C 260.724 19.935 235.572 26.088 235.572 26.088 L 235.572 26.088 Z"
       style="clip-rule:evenodd;fill-opacity:1;fill-rule:evenodd;fill:#ffffff" />
    <path
       id="path4823"
       d="M 375.912 27.516 L 360.798 43.362 C 360.798 43.362 359.994 43.764 359.322 43.764 C 358.659 43.764 357.723 43.092 357.723 43.092 L 355.845 41.484 C 355.845 41.484 355.311 41.361 355.311 40.827 C 355.311 40.287 356.778 38.94 356.778 36.411 C 356.778 33.867 356.25 23.295 339.924 23.295 C 323.598 23.295 316.377 38.541 316.377 51.12 C 316.377 63.69 324.138 86.709 349.563 86.709 C 364.35 86.709 367.485 78.411 367.485 78.411 L 372.57 78.411 L 372.57 100.08 L 344.736 100.08 C 311.565 100.08 293.097 74.133 293.097 55.398 C 293.097 26.688 318.063 10.746 340.725 10.746 C 362.667 10.746 375.912 27.516 375.912 27.516 L 375.912 27.516 Z"
       style="clip-rule:evenodd;fill-opacity:1;fill-rule:evenodd;fill:#ffffff" />
    <path
       id="path4825"
       d="M 430.098 102.714 C 401.196 102.714 380.424 81.609 380.424 55.929 C 380.424 30.231 401.733 10.329 430.098 10.329 C 458.451 10.329 479.763 30.231 479.763 55.929 C 479.763 81.606 458.988 102.714 430.098 102.714 L 430.098 102.714 Z M 404.406 56.325 C 404.406 82.014 417.516 88.431 430.098 88.431 C 442.665 88.431 456.051 80.406 456.051 56.325 C 456.051 32.247 441.066 24.216 430.098 24.216 C 419.127 24.216 404.406 30.63 404.406 56.325 L 404.406 56.325 Z"
       style="clip-rule:evenodd;fill-opacity:1;fill-rule:evenodd;fill:#ffffff" />
    <path
       id="path4827"
       d="M 492.699 13.035 L 524.547 13.035 L 536.052 48.567 L 548.355 12.981 L 581.664 12.981 L 581.664 18.195 C 581.664 18.195 579.447 19.131 578.463 20.337 C 577.26 21.81 577.26 22.875 577.524 25.026 C 577.791 27.159 586.35 85.224 586.62 87.366 C 586.893 89.508 587.154 90.711 587.688 92.184 C 588.222 93.642 590.769 94.854 590.769 94.854 L 590.769 100.251 L 558.789 100.251 L 558.789 94.455 C 558.789 94.455 561.597 94.056 562.542 92.712 C 563.478 91.371 563.874 90.57 563.61 88.431 C 563.34 86.292 555.72 37.596 555.72 37.596 L 541.806 80.673 L 524.949 80.673 L 511.164 40.263 L 504.21 87.894 C 504.21 87.894 503.94 90.753 505.014 92.313 C 506.484 94.455 509.169 94.455 509.169 94.455 L 509.169 100.203 L 481.464 100.203 L 481.464 94.059 C 481.464 94.059 483.672 93.72 485.274 91.839 C 486.876 89.973 487.149 87.558 487.149 87.558 L 497.253 24.75 C 497.253 24.75 497.859 22.401 497.187 21.339 C 496.482 20.211 492.702 19.263 492.702 19.263 L 492.702 13.035 L 492.699 13.035 Z"
       style="clip-rule:evenodd;fill-opacity:1;fill-rule:evenodd;fill:#ffffff" />
  </g>
</svg>
